%YAML 1.1
%TAG !u! tag:unity3d.com,2011:
--- !u!114 &11400000
MonoBehaviour:
  m_ObjectHideFlags: 0
  m_CorrespondingSourceObject: {fileID: 0}
  m_PrefabInstance: {fileID: 0}
  m_PrefabAsset: {fileID: 0}
  m_GameObject: {fileID: 0}
  m_Enabled: 1
  m_EditorHideFlags: 0
  m_Script: {fileID: 11500000, guid: f234e287497e48da82b5fcd7ec17fce9, type: 3}
  m_Name: HighAltitude
  m_EditorClassIdentifier: 
  _audioList:
  - {fileID: 8300000, guid: 5dc9332973a60134f857335aded1b510, type: 3}
  - {fileID: 8300000, guid: ce9b98ba572ca214e88e53dff27d395b, type: 3}
  - {fileID: 8300000, guid: 29ad41b1d0741e64bb1e43eeccd2358a, type: 3}
