%YAML 1.1
%TAG !u! tag:unity3d.com,2011:
--- !u!114 &11400000
MonoBehaviour:
  m_ObjectHideFlags: 0
  m_CorrespondingSourceObject: {fileID: 0}
  m_PrefabInstance: {fileID: 0}
  m_PrefabAsset: {fileID: 0}
  m_GameObject: {fileID: 0}
  m_Enabled: 1
  m_EditorHideFlags: 0
  m_Script: {fileID: 11500000, guid: 82f33fca53790004d9137c6c05f42c65, type: 3}
  m_Name: Stone
  m_EditorClassIdentifier: 
  blockPrefab: {fileID: 282693183723914517, guid: 16629f98db5115142beb02960a0caa04, type: 3}
  Hp: 3
  VFX_DestructionPrefab: {fileID: 2999123158042274196, guid: 011e4148482cfc94fbe2874985579c80, type: 3}
  FootstepsSFX: {fileID: 11400000, guid: a298d3c46cf8c0d4daad9b7c64af3ade, type: 2}
  _id: 4
