{
    "name": "Game.Items",
    "references": [
        "GUID:4e641a966cd5b7e4b9514b6332b0dc13",
        "GUID:31c8f079e15e8cd48aae12e5593411e1"
    ],
    "includePlatforms": [],
    "excludePlatforms": [],
    "allowUnsafeCode": false,
    "overrideReferences": false,
    "precompiledReferences": [],
    "autoReferenced": true,
    "defineConstraints": [],
    "versionDefines": [],
    "noEngineReferences": false
}