%YAML 1.1
%TAG !u! tag:unity3d.com,2011:
--- !u!1 &3858360359152911776
GameObject:
  m_ObjectHideFlags: 0
  m_CorrespondingSourceObject: {fileID: 0}
  m_PrefabInstance: {fileID: 0}
  m_PrefabAsset: {fileID: 0}
  serializedVersion: 6
  m_Component:
  - component: {fileID: 3858360359152911790}
  - component: {fileID: 3858360359152911791}
  m_Layer: 0
  m_Name: TerrainGenerator
  m_TagString: Untagged
  m_Icon: {fileID: 0}
  m_NavMeshLayer: 0
  m_StaticEditorFlags: 0
  m_IsActive: 1
--- !u!4 &3858360359152911790
Transform:
  m_ObjectHideFlags: 0
  m_CorrespondingSourceObject: {fileID: 0}
  m_PrefabInstance: {fileID: 0}
  m_PrefabAsset: {fileID: 0}
  m_GameObject: {fileID: 3858360359152911776}
  m_LocalRotation: {x: 0, y: 0, z: 0, w: 1}
  m_LocalPosition: {x: 0, y: 0, z: 0}
  m_LocalScale: {x: 1, y: 1, z: 1}
  m_Children: []
  m_Father: {fileID: 0}
  m_RootOrder: 0
  m_LocalEulerAnglesHint: {x: 0, y: 0, z: 0}
--- !u!114 &3858360359152911791
MonoBehaviour:
  m_ObjectHideFlags: 0
  m_CorrespondingSourceObject: {fileID: 0}
  m_PrefabInstance: {fileID: 0}
  m_PrefabAsset: {fileID: 0}
  m_GameObject: {fileID: 3858360359152911776}
  m_Enabled: 1
  m_EditorHideFlags: 0
  m_Script: {fileID: 11500000, guid: d87887bb8b7944045afb8f8d6d03d02f, type: 3}
  m_Name: 
  m_EditorClassIdentifier: 
  _height: 30
  _perlinScale: 0.034
  _artifactsHeight: 12.1
  _artifactPerlinScale: 0.815
  _slopeFactor: 2.16
  _blockPrototypes:
  - {fileID: 11400000, guid: 1ac7a7a4da72bb543a9159e940f1f142, type: 2}
  - {fileID: 11400000, guid: 344eafca32fedbb4fa8352dea08c8181, type: 2}
  - {fileID: 11400000, guid: 30f6ad707191427479d3323679d33db0, type: 2}
  - {fileID: 11400000, guid: e58723cb1e6fe94409123028a1576104, type: 2}
  _terrainTypeByHeightCurve:
    serializedVersion: 2
    m_Curve:
    - serializedVersion: 3
      time: 0
      value: 0
      inSlope: 2.2255127
      outSlope: 2.2255127
      tangentMode: 0
      weightedMode: 0
      inWeight: 0
      outWeight: 0.07555556
    - serializedVersion: 3
      time: 1.001334
      value: 0.9956038
      inSlope: 1.9191016
      outSlope: 1.9191016
      tangentMode: 0
      weightedMode: 0
      inWeight: 0.06666666
      outWeight: 0
    m_PreInfinity: 2
    m_PostInfinity: 2
    m_RotationOrder: 4
